"time(s)","V(pw_setting)","V(itech_volt)"
1,100,400.001
101,100,400.14
201,100,400.279
301,100,400.418
401,100,400.557
501,100,400.696
601,100,400.835
701,100,400.974
801,100,401.112
901,100,401.251
1.001e+3,100,401.39
1.101e+3,100,401.529
1.201e+3,100,401.668
1.301e+3,100,401.807
1.401e+3,100,401.946
1.501e+3,100,402.085
1.601e+3,100,402.224
1.701e+3,100,402.362
1.801e+3,100,402.501
1.901e+3,100,402.64
2.001e+3,100,402.779
2.101e+3,100,402.918
2.201e+3,100,403.057
2.301e+3,100,403.196
2.401e+3,100,403.335
2.501e+3,100,403.474
2.601e+3,100,403.612
2.701e+3,100,403.751
2.801e+3,100,403.89
2.901e+3,100,404.029
3.001e+3,100,404.168
3.101e+3,100,404.307
3.201e+3,100,404.446
3.301e+3,100,404.585
3.401e+3,100,404.724
3.501e+3,100,404.862
3.601e+3,100,405.001
3.701e+3,100,405.14
3.801e+3,100,405.279
3.901e+3,100,405.418
4.001e+3,100,405.557
4.101e+3,100,405.696
4.201e+3,100,405.835
4.301e+3,100,405.974
4.401e+3,100,406.112
4.501e+3,100,406.251
4.601e+3,100,406.39
4.701e+3,100,406.529
4.801e+3,100,406.668
4.901e+3,100,406.807
5.001e+3,100,406.946
5.101e+3,100,407.085
5.201e+3,100,407.224
5.301e+3,100,407.362
5.401e+3,100,407.501
5.501e+3,100,407.64
5.601e+3,100,407.779
5.701e+3,100,407.918
5.801e+3,100,408.057
5.901e+3,100,408.196
6.001e+3,100,408.335
6.101e+3,100,408.474
6.201e+3,100,408.612
6.301e+3,100,408.751
6.401e+3,100,408.89
6.501e+3,100,409.029
6.601e+3,100,409.168
6.701e+3,100,409.307
6.801e+3,100,409.446
6.901e+3,100,409.585
7.001e+3,100,409.724
7.101e+3,100,409.862
7.201e+3,100,410.001
7.301e+3,100,410.14
7.401e+3,100,410.279
7.501e+3,100,410.418
7.601e+3,100,410.557
7.701e+3,100,410.696
7.801e+3,100,410.835
7.901e+3,100,410.974
8.001e+3,100,411.112
8.101e+3,100,411.251
8.201e+3,100,411.39
8.301e+3,100,411.529
8.401e+3,100,411.668
8.501e+3,100,411.807
8.601e+3,100,411.946
8.701e+3,100,412.085
8.801e+3,100,412.224
8.901e+3,100,412.362
9.001e+3,100,412.501
9.101e+3,100,412.64
9.201e+3,100,412.779
9.301e+3,100,412.918
9.401e+3,100,413.057
9.501e+3,100,413.196
9.601e+3,100,413.335
9.701e+3,100,413.474
9.801e+3,100,413.612
9.901e+3,100,413.751
10.001e+3,100,413.89
10.101e+3,100,414.029
10.201e+3,100,414.168
10.301e+3,100,414.307
10.401e+3,100,414.446
10.501e+3,100,414.585
10.601e+3,100,414.724
10.701e+3,100,414.862
10.801e+3,100,415.001
10.901e+3,100,415.14
11.001e+3,100,415.279
11.101e+3,100,415.418
11.201e+3,100,415.557
11.301e+3,100,415.696
11.401e+3,100,415.835
11.501e+3,100,415.974
11.601e+3,100,416.112
11.701e+3,100,416.251
11.801e+3,100,416.39
11.901e+3,100,416.529
12.001e+3,100,416.668
12.101e+3,100,416.807
12.201e+3,100,416.946
12.301e+3,100,417.085
12.401e+3,100,417.224
12.501e+3,100,417.362
12.601e+3,100,417.501
12.701e+3,100,417.64
12.801e+3,100,417.779
12.901e+3,100,417.918
13.001e+3,100,418.057
13.101e+3,100,418.196
13.201e+3,100,418.335
13.301e+3,100,418.474
13.401e+3,100,418.612
13.501e+3,100,418.751
13.601e+3,100,418.89
13.701e+3,100,419.029
13.801e+3,100,419.168
13.901e+3,100,419.307
14.001e+3,100,419.446
14.101e+3,100,419.585
14.201e+3,100,419.724
14.301e+3,100,419.862
14.401e+3,100,420.001
14.501e+3,100,420.14
14.601e+3,100,420.279
14.701e+3,100,420.418
14.801e+3,100,420.557
14.901e+3,100,420.696
15.001e+3,100,420.835
15.101e+3,100,420.974
15.201e+3,100,421.112
15.301e+3,100,421.251
15.401e+3,100,421.39
15.501e+3,100,421.529
15.601e+3,100,421.668
15.701e+3,100,421.807
15.801e+3,100,421.946
15.901e+3,100,422.085
16.001e+3,100,422.224
16.101e+3,100,422.362
16.201e+3,100,422.501
16.301e+3,100,422.64
16.401e+3,100,422.779
16.501e+3,100,422.918
16.601e+3,100,423.057
16.701e+3,100,423.196
16.801e+3,100,423.335
16.901e+3,100,423.474
17.001e+3,100,423.612
17.101e+3,100,423.751
17.201e+3,100,423.89
17.301e+3,100,424.029
17.401e+3,100,424.168
17.501e+3,100,424.307
17.601e+3,100,424.446
17.701e+3,100,424.585
17.801e+3,100,424.724
17.901e+3,100,424.862
18.001e+3,100,425.001
18.101e+3,100,425.14
18.201e+3,100,425.279
18.301e+3,100,425.418
18.401e+3,100,425.557
18.501e+3,100,425.696
18.601e+3,100,425.835
18.701e+3,100,425.974
18.801e+3,100,426.112
18.901e+3,100,426.251
19.001e+3,100,426.39
19.101e+3,100,426.529
19.201e+3,100,426.668
19.301e+3,100,426.807
19.401e+3,100,426.946
19.501e+3,100,427.085
19.601e+3,100,427.224
19.701e+3,100,427.362
19.801e+3,100,427.501
19.901e+3,100,427.64
20.001e+3,100,427.779
20.101e+3,100,427.918
20.201e+3,100,428.057
20.301e+3,100,428.196
20.401e+3,100,428.335
20.501e+3,100,428.474
20.601e+3,100,428.612
20.701e+3,100,428.751
20.801e+3,100,428.89
20.901e+3,100,429.029
21.001e+3,100,429.168
21.101e+3,100,429.307
21.201e+3,100,429.446
21.301e+3,100,429.585
21.401e+3,100,429.724
21.501e+3,100,429.862
21.601e+3,100,430.001
21.701e+3,100,430.14
21.801e+3,100,430.279
21.901e+3,100,430.418
22.001e+3,100,430.557
22.101e+3,100,430.696
22.201e+3,100,430.835
22.301e+3,100,430.974
22.401e+3,100,431.112
22.501e+3,100,431.251
22.601e+3,100,431.39
22.701e+3,100,431.529
22.801e+3,100,431.668
22.901e+3,100,431.807
23.001e+3,100,431.946
23.101e+3,100,432.085
23.201e+3,100,432.224
23.301e+3,100,432.362
23.401e+3,100,432.501
23.501e+3,100,432.64
23.601e+3,100,432.779
23.701e+3,100,432.918
23.801e+3,100,433.057
23.901e+3,100,433.196
24.001e+3,100,433.335
24.101e+3,100,433.474
24.201e+3,100,433.612
24.301e+3,100,433.751
24.401e+3,100,433.89
24.501e+3,100,434.029
24.601e+3,100,434.168
24.701e+3,100,434.307
24.801e+3,100,434.446
24.901e+3,100,434.585
25.001e+3,100,434.724
25.101e+3,100,434.862
25.201e+3,100,435.001
25.301e+3,100,435.14
25.401e+3,100,435.279
25.501e+3,100,435.418
25.601e+3,100,435.557
25.701e+3,100,435.696
25.801e+3,100,435.835
25.901e+3,100,435.974
26.001e+3,100,436.112
26.101e+3,100,436.251
26.201e+3,100,436.39
26.301e+3,100,436.529
26.401e+3,100,436.668
26.501e+3,100,436.807
26.601e+3,100,436.946
26.701e+3,100,437.085
26.801e+3,100,437.224
26.901e+3,100,437.362
27.001e+3,100,437.501
27.101e+3,100,437.64
27.201e+3,100,437.779
27.301e+3,100,437.918
27.401e+3,100,438.057
27.501e+3,100,438.196
27.601e+3,100,438.335
27.701e+3,100,438.474
27.801e+3,100,438.612
27.901e+3,100,438.751
28.001e+3,100,438.89
28.101e+3,100,439.029
28.201e+3,100,439.168
28.301e+3,100,439.307
28.401e+3,100,439.446
28.501e+3,100,439.585
28.601e+3,100,439.724
28.701e+3,100,439.862
28.801e+3,100,440.001
28.901e+3,100,440.14
29.001e+3,100,440.279
29.101e+3,100,440.418
29.201e+3,100,440.557
29.301e+3,100,440.696
29.401e+3,100,440.835
29.501e+3,100,440.974
29.601e+3,100,441.112
29.701e+3,100,441.251
29.801e+3,100,441.39
29.901e+3,100,441.529
30.001e+3,100,441.668
30.101e+3,100,441.807
30.201e+3,100,441.946
30.301e+3,100,442.085
30.401e+3,100,442.224
30.501e+3,100,442.362
30.601e+3,100,442.501
30.701e+3,100,442.64
30.801e+3,100,442.779
30.901e+3,100,442.918
31.001e+3,100,443.057
31.101e+3,100,443.196
31.201e+3,100,443.335
31.301e+3,100,443.474
31.401e+3,100,443.612
31.501e+3,100,443.751
31.601e+3,100,443.89
31.701e+3,100,444.029
31.801e+3,100,444.168
31.901e+3,100,444.307
32.001e+3,100,444.446
32.101e+3,100,444.585
32.201e+3,100,444.724
32.301e+3,100,444.862
32.401e+3,100,445.001
32.501e+3,100,445.14
32.601e+3,100,445.279
32.701e+3,100,445.418
32.801e+3,100,445.557
32.901e+3,100,445.696
33.001e+3,100,445.835
33.101e+3,100,445.974
33.201e+3,100,446.112
33.301e+3,100,446.251
33.401e+3,100,446.39
33.501e+3,100,446.529
33.601e+3,100,446.668
33.701e+3,100,446.807
33.801e+3,100,446.946
33.901e+3,100,447.085
34.001e+3,100,447.224
34.101e+3,100,447.362
34.201e+3,100,447.501
34.301e+3,100,447.64
34.401e+3,100,447.779
34.501e+3,100,447.918
34.601e+3,100,448.057
34.701e+3,100,448.196
34.801e+3,100,448.335
34.901e+3,100,448.474
35.001e+3,100,448.612
35.101e+3,100,448.751
35.201e+3,100,448.89
35.301e+3,100,449.029
35.401e+3,100,449.168
35.501e+3,100,449.307
35.601e+3,100,449.446
35.701e+3,100,449.585
35.801e+3,100,449.724
35.901e+3,100,449.862
36.001e+3,100,450
36.101e+3,100,450
36.201e+3,100,450
36.301e+3,100,450
36.401e+3,100,450
36.501e+3,100,450
36.601e+3,100,450
36.701e+3,100,450
36.801e+3,100,450
36.901e+3,100,450
37.001e+3,100,450
37.101e+3,100,450
37.201e+3,100,450
37.301e+3,100,450
37.401e+3,100,450
37.501e+3,100,450
37.601e+3,100,450
37.701e+3,100,450
37.801e+3,100,450
37.901e+3,100,450
38.001e+3,100,450
38.101e+3,100,450
38.201e+3,100,450
38.301e+3,100,450
38.401e+3,100,450
38.501e+3,100,450
38.601e+3,100,450
38.701e+3,100,450
38.801e+3,100,450
38.901e+3,100,450
39.001e+3,100,450
39.101e+3,100,450
39.201e+3,100,450
39.301e+3,100,450
39.401e+3,100,450
39.501e+3,100,450
39.601e+3,100,450
39.701e+3,100,450
39.801e+3,100,450
39.901e+3,100,450
40.001e+3,100,450
40.101e+3,100,450
40.201e+3,100,450
40.301e+3,100,450
40.401e+3,100,450
40.501e+3,100,450
40.601e+3,100,450
40.701e+3,100,450
40.801e+3,100,450
40.901e+3,100,450
41.001e+3,100,450
41.101e+3,100,450
41.201e+3,100,450
41.301e+3,100,450
41.401e+3,100,450
41.501e+3,100,450
41.601e+3,100,450
41.701e+3,100,450
41.801e+3,100,450
41.901e+3,100,450
42.001e+3,100,450
42.101e+3,100,450
42.201e+3,100,450
42.301e+3,100,450
42.401e+3,100,450
42.501e+3,100,450
42.601e+3,100,450
42.701e+3,100,450
42.801e+3,100,450
42.901e+3,100,450
43.001e+3,100,450
43.101e+3,100,450
43.201e+3,,
